com\xianzaishi\itemcenter\client\itemsku\query\SkuQuery.class
com\xianzaishi\itemcenter\client\item\dto\ItemProductDTO.class
com\xianzaishi\itemcenter\client\itemsku\SkuService.class
com\xianzaishi\itemcenter\client\presale\ItemPreSaleService.class
com\xianzaishi\itemcenter\client\itemsku\dto\ItemSkuTagsDTO$SkuTagDefinitionConstants.class
com\xianzaishi\itemcenter\client\itemsku\dto\ItemCommoditySkuDTO$SkuSaleUnitConstants.class
com\xianzaishi\itemcenter\client\presale\dto\ItemPreSaleDTO.class
com\xianzaishi\itemcenter\client\item\dto\ItemProductDTO$ItemProductStatusConstants.class
com\xianzaishi\itemcenter\client\itemsku\dto\ItemSkuRelationDTO.class
com\xianzaishi\itemcenter\client\item\dto\ItemBaseDTO.class
com\xianzaishi\itemcenter\client\sysproperty\SystemPropertyService.class
com\xianzaishi\itemcenter\client\property\dto\PropertyDTO.class
com\xianzaishi\itemcenter\client\item\dto\ItemBaseDTO$ItemStatusConstants.class
com\xianzaishi\itemcenter\client\itemsku\dto\ItemSkuDTO.class
com\xianzaishi\itemcenter\client\item\CommodityService.class
com\xianzaishi\itemcenter\client\stdcategory\CmCategoryService.class
com\xianzaishi\itemcenter\client\itemsku\query\SkuRelationBackQuery.class
com\xianzaishi\itemcenter\client\value\ValueService.class
com\xianzaishi\itemcenter\client\itemsku\dto\ItemCommoditySkuDTO$SkuTypeConstants.class
com\xianzaishi\itemcenter\client\itemsku\dto\ItemProductSkuDTO.class
com\xianzaishi\itemcenter\client\property\PropertyService.class
com\xianzaishi\itemcenter\client\item\dto\ItemSpecificationDTO.class
com\xianzaishi\itemcenter\client\itemsku\dto\ItemSkuTagsDTO.class
com\xianzaishi\itemcenter\client\stdcategory\query\StdCategoryQuery.class
com\xianzaishi\itemcenter\client\sysproperty\CacheSystemPropertyService$1.class
com\xianzaishi\itemcenter\client\stdcategory\dto\CmCategoryDTO.class
com\xianzaishi\itemcenter\client\itemsku\dto\ItemCommoditySkuDTO.class
com\xianzaishi\itemcenter\client\value\dto\ValueDTO.class
com\xianzaishi\itemcenter\client\sysproperty\CacheSystemPropertyService.class
com\xianzaishi\itemcenter\client\item\dto\IntroductDataDTO.class
com\xianzaishi\itemcenter\client\item\dto\ItemDTO.class
com\xianzaishi\itemcenter\client\item\dto\ItemBaseDTO$SaleStatusConstants.class
com\xianzaishi\itemcenter\client\itemsku\query\SkuRelationQuery.class
com\xianzaishi\itemcenter\client\item\ProductService.class
com\xianzaishi\itemcenter\client\stdcategory\StdCategoryService.class
com\xianzaishi\itemcenter\client\sysproperty\dto\SystemConfigDTO.class
com\xianzaishi\itemcenter\client\stdcategory\dto\CategoryDTO.class
com\xianzaishi\itemcenter\client\itemsku\constants\SkuConstants.class
com\xianzaishi\itemcenter\client\item\query\ItemQuery.class
com\xianzaishi\itemcenter\client\presale\query\ItemPreSaleQuery.class
com\xianzaishi\itemcenter\client\itemsku\dto\SkuTagDetail.class
com\xianzaishi\itemcenter\client\property\dto\PropertyDTO$1.class
com\xianzaishi\itemcenter\client\itemsku\dto\ItemSkuRelationDTO$RelationTypeConstants.class
com\xianzaishi\itemcenter\client\item\query\ItemListQuery.class
