D:\mywork\itemcenter\item_client\src\main\java\com\xianzaishi\itemcenter\client\item\dto\ItemSpecificationDTO.java
D:\mywork\itemcenter\item_client\src\main\java\com\xianzaishi\itemcenter\client\item\query\ItemListQuery.java
D:\mywork\itemcenter\item_client\src\main\java\com\xianzaishi\itemcenter\client\sysproperty\CacheSystemPropertyService.java
D:\mywork\itemcenter\item_client\src\main\java\com\xianzaishi\itemcenter\client\itemsku\query\SkuRelationBackQuery.java
D:\mywork\itemcenter\item_client\src\main\java\com\xianzaishi\itemcenter\client\itemsku\query\SkuQuery.java
D:\mywork\itemcenter\item_client\src\main\java\com\xianzaishi\itemcenter\client\presale\ItemPreSaleService.java
D:\mywork\itemcenter\item_client\src\main\java\com\xianzaishi\itemcenter\client\itemsku\constants\SkuConstants.java
D:\mywork\itemcenter\item_client\src\main\java\com\xianzaishi\itemcenter\client\sysproperty\dto\SystemConfigDTO.java
D:\mywork\itemcenter\item_client\src\main\java\com\xianzaishi\itemcenter\client\item\CommodityService.java
D:\mywork\itemcenter\item_client\src\main\java\com\xianzaishi\itemcenter\client\itemsku\SkuService.java
D:\mywork\itemcenter\item_client\src\main\java\com\xianzaishi\itemcenter\client\value\dto\ValueDTO.java
D:\mywork\itemcenter\item_client\src\main\java\com\xianzaishi\itemcenter\client\itemsku\dto\ItemSkuTagsDTO.java
D:\mywork\itemcenter\item_client\src\main\java\com\xianzaishi\itemcenter\client\itemsku\dto\ItemSkuDTO.java
D:\mywork\itemcenter\item_client\src\main\java\com\xianzaishi\itemcenter\client\item\dto\IntroductDataDTO.java
D:\mywork\itemcenter\item_client\src\main\java\com\xianzaishi\itemcenter\client\item\dto\ItemBaseDTO.java
D:\mywork\itemcenter\item_client\src\main\java\com\xianzaishi\itemcenter\client\property\PropertyService.java
D:\mywork\itemcenter\item_client\src\main\java\com\xianzaishi\itemcenter\client\item\dto\ItemDTO.java
D:\mywork\itemcenter\item_client\src\main\java\com\xianzaishi\itemcenter\client\stdcategory\dto\CmCategoryDTO.java
D:\mywork\itemcenter\item_client\src\main\java\com\xianzaishi\itemcenter\client\value\ValueService.java
D:\mywork\itemcenter\item_client\src\main\java\com\xianzaishi\itemcenter\client\itemsku\query\SkuRelationQuery.java
D:\mywork\itemcenter\item_client\src\main\java\com\xianzaishi\itemcenter\client\item\query\ItemQuery.java
D:\mywork\itemcenter\item_client\src\main\java\com\xianzaishi\itemcenter\client\sysproperty\SystemPropertyService.java
D:\mywork\itemcenter\item_client\src\main\java\com\xianzaishi\itemcenter\client\stdcategory\StdCategoryService.java
D:\mywork\itemcenter\item_client\src\main\java\com\xianzaishi\itemcenter\client\itemsku\dto\ItemProductSkuDTO.java
D:\mywork\itemcenter\item_client\src\main\java\com\xianzaishi\itemcenter\client\item\ProductService.java
D:\mywork\itemcenter\item_client\src\main\java\com\xianzaishi\itemcenter\client\stdcategory\dto\CategoryDTO.java
D:\mywork\itemcenter\item_client\src\main\java\com\xianzaishi\itemcenter\client\itemsku\dto\ItemSkuRelationDTO.java
D:\mywork\itemcenter\item_client\src\main\java\com\xianzaishi\itemcenter\client\presale\query\ItemPreSaleQuery.java
D:\mywork\itemcenter\item_client\src\main\java\com\xianzaishi\itemcenter\client\item\dto\ItemProductDTO.java
D:\mywork\itemcenter\item_client\src\main\java\com\xianzaishi\itemcenter\client\presale\dto\ItemPreSaleDTO.java
D:\mywork\itemcenter\item_client\src\main\java\com\xianzaishi\itemcenter\client\itemsku\dto\SkuTagDetail.java
D:\mywork\itemcenter\item_client\src\main\java\com\xianzaishi\itemcenter\client\stdcategory\CmCategoryService.java
D:\mywork\itemcenter\item_client\src\main\java\com\xianzaishi\itemcenter\client\itemsku\dto\ItemCommoditySkuDTO.java
D:\mywork\itemcenter\item_client\src\main\java\com\xianzaishi\itemcenter\client\property\dto\PropertyDTO.java
D:\mywork\itemcenter\item_client\src\main\java\com\xianzaishi\itemcenter\client\stdcategory\query\StdCategoryQuery.java
